module gitlab.com/huginntc/txexplore

go 1.17

require (
	github.com/gogo/protobuf v1.3.2
	github.com/syndtr/goleveldb v1.0.1-0.20200815110645-5c35d600f0ca
	github.com/tendermint/tendermint v0.35.9
)

require (
	github.com/btcsuite/btcd v0.22.1 // indirect
	github.com/golang/protobuf v1.5.2 // indirect
	github.com/golang/snappy v0.0.3 // indirect
	github.com/oasisprotocol/curve25519-voi v0.0.0-20210609091139-0a56a4bca00b // indirect
	github.com/petermattis/goid v0.0.0-20180202154549-b0b1615b78e5 // indirect
	github.com/sasha-s/go-deadlock v0.2.1-0.20190427202633-1595213edefa // indirect
	golang.org/x/crypto v0.0.0-20220525230936-793ad666bf5e // indirect
	golang.org/x/net v0.0.0-20220617184016-355a448f1bc9 // indirect
	golang.org/x/sys v0.0.0-20220702020025-31831981b65f // indirect
	golang.org/x/text v0.3.7 // indirect
	google.golang.org/genproto v0.0.0-20220519153652-3a47de7e79bd // indirect
	google.golang.org/grpc v1.47.0 // indirect
	google.golang.org/protobuf v1.28.0 // indirect
)
